Data Visualization in R - Course Diary
…
Exercise 1

1.1

Create a new code chunk where you load the tidyverse package. In the chunk settings, suppress any output messages.

library(tidyverse)

1.2

The tibble df has 60 observations (rows) of variables (columns) group, gender, score1 and score2 (continuous scores from two tests). Each row represents one participant.

df

## # A tibble: 60 x 4
##    group gender score1 score2          
##    <int> <chr>   <dbl> <chr>           
##  1     2 F        18.7 14.7563711082321
##  2     1 M        20.1 15.1463059324341
##  3     2 F        17.4 19.0025387614538
##  4     1 M        18.7 15.5693261509451
##  5     2 F        18.5 16.7322250273729
##  6     1 999      16.9 16.4511010915052
##  7     2 M        20.4 15.1008590050657
##  8     1 F        20.3 15.191041952879 
##  9     1 F        19.4 13.9717194882152
## 10     2 M        21.2 22.6918520246433
## #  with 50 more rows
…
